…
``` r
municipios <- municipios %>% distinct()
municipios$valor <- as.double(municipios$valor)
municipios %>% filter(llave=="poblacionsiete") %>% mutate(porcentajepob = valor/sum(valor)) %>% arrange(desc(porcentajepob))
```

    ## # A tibble: 340 x 6
    ##    Código Municipio        llave      caract            valor porcentajepob
    ##    <chr>  <chr>            <chr>      <chr>             <dbl>         <dbl>
    ##  1 101    Guatemala        poblacion~ Población de 7 ~ 823541        0.0657
    ##  2 108    Mixco            poblacion~ Población de 7 ~ 413084        0.0330
    ##  3 115    Villa Nueva      poblacion~ Población de 7 ~ 378827        0.0302
    ##  4 1609   San Pedro Carchá poblacion~ Población de 7 ~ 190682        0.0152
    ##  5 110    San Juan Sacate~ poblacion~ Población de 7 ~ 184474        0.0147
    ##  6 1601   Cobán            poblacion~ Población de 7 ~ 176556        0.0141
    ##  7 901    Quetzaltenango   poblacion~ Población de 7 ~ 158834        0.0127
    ##  8 501    Escuintla        poblacion~ Población de 7 ~ 135581        0.0108
    ##  9 116    Villa Canales    poblacion~ Población de 7 ~ 133606        0.0107
    ## 10 2101   Jalapa           poblacion~ Población de 7 ~ 130920        0.0104
    ## # ... with 330 more rows

``` r
municipios
```

    ## # A tibble: 62,220 x 5
    ##    Código Municipio              llave caract             valor
    ##    <chr>  <chr>                  <chr> <chr>              <dbl>
    ##  1 101    Guatemala              total Total de personas 923392
    ##  2 102    Santa Catarina Pinula  total Total de personas  80582
    ##  3 103    San José Pinula        total Total de personas  79844
    ##  4 104    San José del Golfo     total Total de personas   7229
    ##  5 105    Palencia               total Total de personas  70973
    ##  6 106    Chinautla              total Total de personas 114752
    ##  7 107    San Pedro Ayampuc      total Total de personas  58609
    ##  8 108    Mixco                  total Total de personas 465773
    ##  9 109    San Pedro Sacatepéquez total Total de personas  51292
    ## 10 110    San Juan Sacatepéquez  total Total de personas 218156
    ## # ... with 62,210 more rows
…
