…
``` r
datos$X1 <- NULL
datos
```

    ## # A tibble: 2,180 x 10
    ##    COD_VIAJE CLIENTE UBICACION CANTIDAD PILOTO     Q CREDITO UNIDAD MES  
    ##        <int> <chr>       <int>    <int> <chr>  <dbl>   <int> <chr>  <chr>
    ##  1  10000001 EL PIN~     76002     1200 Ferna~ 300        30 Camio~ 01   
    ##  2  10000002 TAQUER~     76002     1433 Hecto~ 358.       90 Camio~ 01   
    ##  3  10000003 TIENDA~     76002     1857 Pedro~ 464.       60 Camio~ 01   
    ##  4  10000004 TAQUER~     76002      339 Angel~  84.8      30 Panel  01   
    ##  5  10000005 CHICHA~     76001     1644 Juan ~ 411        30 Camio~ 01   
    ##  6  10000006 UBIQUO~     76001     1827 Luis ~ 457.       30 Camio~ 01   
    ##  7  10000007 CHICHA~     76002     1947 Ismae~ 487.       90 Camio~ 01   
    ##  8  10000008 TAQUER~     76001     1716 Juan ~ 429        60 Camio~ 01   
    ##  9  10000009 EL GAL~     76002     1601 Ismae~ 400.       30 Camio~ 01   
    ## 10  10000010 CHICHA~     76002     1343 Ferna~ 336.       90 Camio~ 01   
    ## # ... with 2,170 more rows, and 1 more variable: ANIO <int>
…
``` r
datos %>% select(UNIDAD, MES, UBICACION, COD_VIAJE) %>% group_by(UNIDAD, MES) %>% count(UNIDAD) %>% distinct()
```

    ## # A tibble: 33 x 3
    ## # Groups:   UNIDAD, MES [33]
    ##    UNIDAD        MES       n
    ##    <chr>         <chr> <int>
    ##  1 Camion Grande 01      122
    ##  2 Camion Grande 02      114
    ##  3 Camion Grande 03       98
    ##  4 Camion Grande 04      101
    ##  5 Camion Grande 05      117
    ##  6 Camion Grande 06      107
    ##  7 Camion Grande 07      121
    ##  8 Camion Grande 08      102
    ##  9 Camion Grande 09      102
    ## 10 Camion Grande 10      108
    ## # ... with 23 more rows
…
``` r
#Para ver si las tarifas actuales son aceptadas por el cliente
datos %>% select(CLIENTE,MES) %>% group_by(MES) %>% 
  count(CLIENTE) %>% distinct() %>% 
  arrange(CLIENTE)
```

    ## # A tibble: 198 x 3
    ## # Groups:   MES [11]
    ##    MES   CLIENTE                                     n
    ##    <chr> <chr>                                   <int>
    ##  1 01    ABARROTERIA EBENEZER/Despacho a cliente    10
    ##  2 02    ABARROTERIA EBENEZER/Despacho a cliente    22
    ##  3 03    ABARROTERIA EBENEZER/Despacho a cliente     9
    ##  4 04    ABARROTERIA EBENEZER/Despacho a cliente    11
    ##  5 05    ABARROTERIA EBENEZER/Despacho a cliente     9
    ##  6 06    ABARROTERIA EBENEZER/Despacho a cliente     9
    ##  7 07    ABARROTERIA EBENEZER/Despacho a cliente    14
    ##  8 08    ABARROTERIA EBENEZER/Despacho a cliente    14
    ##  9 09    ABARROTERIA EBENEZER/Despacho a cliente     8
    ## 10 10    ABARROTERIA EBENEZER/Despacho a cliente    13
    ## # ... with 188 more rows

``` r
#Los viajes que se hacen para cada cliente no están disminuyendo solo fluctúan
#La tarifa actual es de Q4 por cada cosa
datos %>% select(CLIENTE,MES,CANTIDAD) %>% group_by(CLIENTE, MES) %>% 
  summarise(TotalCantidad= sum(CANTIDAD))
```

    ## # A tibble: 198 x 3
    ## # Groups:   CLIENTE [18]
    ##    CLIENTE                                 MES   TotalCantidad
    ##    <chr>                                   <chr>         <int>
    ##  1 ABARROTERIA EBENEZER/Despacho a cliente 01            11136
    ##  2 ABARROTERIA EBENEZER/Despacho a cliente 02            27775
    ##  3 ABARROTERIA EBENEZER/Despacho a cliente 03            11981
    ##  4 ABARROTERIA EBENEZER/Despacho a cliente 04            10121
    ##  5 ABARROTERIA EBENEZER/Despacho a cliente 05            11818
    ##  6 ABARROTERIA EBENEZER/Despacho a cliente 06             8099
    ##  7 ABARROTERIA EBENEZER/Despacho a cliente 07            17843
    ##  8 ABARROTERIA EBENEZER/Despacho a cliente 08            13829
    ##  9 ABARROTERIA EBENEZER/Despacho a cliente 09             9231
    ## 10 ABARROTERIA EBENEZER/Despacho a cliente 10            12567
    ## # ... with 188 more rows
…
