…
    ## The following object is masked from 'package:stats':
    ## 
    ##     filter

    ## The following object is masked from 'package:graphics':
    ## 
    ##     layout

``` r
tarifas<- datos %>% select(factura, Cod, height) %>% group_by(Cod, height) %>% summarise(mean = mean(factura), min = min(factura), max = max(factura))
tarifas
```

    ## # A tibble: 50 x 5
    ## # Groups:   Cod [10]
    ##    Cod               height  mean   min   max
    ##    <chr>              <int> <dbl> <dbl> <dbl>
    ##  1 CAMBIO_CORRECTIVO      8  127.  17.3  414.
    ##  2 CAMBIO_CORRECTIVO     10  125.  16.6  410.
    ##  3 CAMBIO_CORRECTIVO     12  123.  11.5  442.
    ##  4 CAMBIO_CORRECTIVO     14  125.  17.0  471.
    ##  5 CAMBIO_CORRECTIVO     16  123.  11.3  425.
    ##  6 CAMBIO_FUSIBLE         8  152.  29.1  437.
    ##  7 CAMBIO_FUSIBLE        10  152.  14.9  449.
    ##  8 CAMBIO_FUSIBLE        12  154.  13.0  442.
    ##  9 CAMBIO_FUSIBLE        14  155.  19.5  522.
    ## 10 CAMBIO_FUSIBLE        16  154.  21.6  462.
    ## # ... with 40 more rows
…
``` r
datos$ID <- as.character(datos$ID)
ingresoposte <- datos %>% group_by(ID) %>% summarise(total = sum(factura)) %>% arrange(desc(total)) %>% mutate(porcentaje = 100*total/sum(total))
ingresoposte
```

    ## # A tibble: 74,239 x 3
    ##    ID      total porcentaje
    ##    <chr>   <dbl>      <dbl>
    ##  1 773607 54202.     0.148 
    ##  2 863979 50494.     0.138 
    ##  3 969156 44404.     0.121 
    ##  4 477971 41224.     0.112 
    ##  5 337161 34991.     0.0954
    ##  6 519948 32008.     0.0872
    ##  7 507880 31123.     0.0848
    ##  8 974308 30087.     0.0820
    ##  9 353203 28458.     0.0776
    ## 10 479116 24938      0.0680
    ## # ... with 74,229 more rows
…
    ## [1] 29350477

``` r
clientestotal <- datos %>% 
  group_by(ID) %>% 
  summarise(totalfactura = sum(factura)) %>% 
  arrange(desc(totalfactura))
clientestotal
```

    ## # A tibble: 74,239 x 2
    ##    ID     totalfactura
    ##    <chr>         <dbl>
    ##  1 773607       54202.
    ##  2 863979       50494.
    ##  3 969156       44404.
    ##  4 477971       41224.
    ##  5 337161       34991.
    ##  6 519948       32008.
    ##  7 507880       31123.
    ##  8 974308       30087.
    ##  9 353203       28458.
    ## 10 479116       24938 
    ## # ... with 74,229 more rows
``` r
#Los que representan el 20% de todo
postes20 <- postes*0.2
postes20
```

    ##         n
    ## 1 14847.8

``` r
clientes_20 <- head(clientestotal,14847)
clientes_20
```

    ## # A tibble: 14,847 x 2
    ##    ID     totalfactura
    ##    <chr>         <dbl>
    ##  1 773607       54202.
    ##  2 863979       50494.
    ##  3 969156       44404.
    ##  4 477971       41224.
    ##  5 337161       34991.
    ##  6 519948       32008.
    ##  7 507880       31123.
    ##  8 974308       30087.
    ##  9 353203       28458.
    ## 10 479116       24938 
    ## # ... with 14,837 more rows
…
    ##   totalventas
    ## 1   0.7495006

``` r
#El 40% representa el 75% de las ventas
```

``` r
clientes_40
```

    ## # A tibble: 29,695 x 2
    ##    ID     totalfactura
    ##    <chr>         <dbl>
    ##  1 773607       54202.
    ##  2 863979       50494.
    ##  3 969156       44404.
    ##  4 477971       41224.
    ##  5 337161       34991.
    ##  6 519948       32008.
    ##  7 507880       31123.
    ##  8 974308       30087.
    ##  9 353203       28458.
    ## 10 479116       24938 
    ## # ... with 29,685 more rows
…
